{
    "data": [
        {
            "id": 19,
            "attributes": {
                "title": "avant-garde lamp",
                "company": "Modenza",
                "description": "Cloud bread VHS hell of banjo bicycle rights jianbing umami mumblecore etsy 8-bit pok pok +1 wolf. Vexillologist yr dreamcatcher waistcoat, authentic chillwave trust fund. Viral typewriter fingerstache pinterest pork belly narwhal. Schlitz venmo everyday carry kitsch pitchfork chillwave iPhone taiyaki trust fund hashtag kinfolk microdosing gochujang live-edge",
                "featured": true,
                "createdAt": "2023-08-10T10:07:41.876Z",
                "updatedAt": "2023-08-10T10:16:43.298Z",
                "publishedAt": "2023-08-10T10:07:44.157Z",
                "category": "Kids",
                "image": "https://images.pexels.com/photos/943150/pexels-photo-943150.jpeg?auto=compress&cs=tinysrgb&w=1600",
                "price": "17999",
                "shipping": false,
                "colors": [
                    "#33FF57",
                    "#3366FF"
                ]
            }
        },
        {
            "id": 12,
            "attributes": {
                "title": "chic chair",
                "company": "Luxora",
                "description": "Cloud bread VHS hell of banjo bicycle rights jianbing umami mumblecore etsy 8-bit pok pok +1 wolf. Vexillologist yr dreamcatcher waistcoat, authentic chillwave trust fund. Viral typewriter fingerstache pinterest pork belly narwhal. Schlitz venmo everyday carry kitsch pitchfork chillwave iPhone taiyaki trust fund hashtag kinfolk microdosing gochujang live-edge",
                "featured": false,
                "createdAt": "2023-08-10T09:32:58.392Z",
                "updatedAt": "2023-08-10T09:33:03.728Z",
                "publishedAt": "2023-08-10T09:33:03.598Z",
                "category": "Chairs",
                "image": "https://images.pexels.com/photos/5705090/pexels-photo-5705090.jpeg?auto=compress&cs=tinysrgb&w=1600",
                "price": "33999",
                "shipping": true,
                "colors": [
                    "#FF5733",
                    "#33FF57",
                    "#3366FF"
                ]
            }
        },
        {
            "id": 6,
            "attributes": {
                "title": "coffee table",
                "company": "Modenza",
                "description": "Cloud bread VHS hell of banjo bicycle rights jianbing umami mumblecore etsy 8-bit pok pok +1 wolf. Vexillologist yr dreamcatcher waistcoat, authentic chillwave trust fund. Viral typewriter fingerstache pinterest pork belly narwhal. Schlitz venmo everyday carry kitsch pitchfork chillwave iPhone taiyaki trust fund hashtag kinfolk microdosing gochujang live-edge",
                "featured": true,
                "createdAt": "2023-08-02T14:32:02.775Z",
                "updatedAt": "2023-08-04T07:35:16.880Z",
                "publishedAt": "2023-08-02T14:32:05.491Z",
                "category": "Tables",
                "image": "https://images.pexels.com/photos/3679601/pexels-photo-3679601.jpeg?auto=compress&cs=tinysrgb&w=1260&h=750&dpr=2",
                "price": "17999",
                "shipping": false,
                "colors": [
                    "#FF5733",
                    "#FFFF00"
                ]
            }
        },
        {
            "id": 7,
            "attributes": {
                "title": "comfy bed",
                "company": "Homestead",
                "description": "Cloud bread VHS hell of banjo bicycle rights jianbing umami mumblecore etsy 8-bit pok pok +1 wolf. Vexillologist yr dreamcatcher waistcoat, authentic chillwave trust fund. Viral typewriter fingerstache pinterest pork belly narwhal. Schlitz venmo everyday carry kitsch pitchfork chillwave iPhone taiyaki trust fund hashtag kinfolk microdosing gochujang live-edge",
                "featured": true,
                "createdAt": "2023-08-02T14:34:10.146Z",
                "updatedAt": "2023-08-08T14:06:28.575Z",
                "publishedAt": "2023-08-02T14:34:13.604Z",
                "category": "Beds",
                "image": "https://images.pexels.com/photos/1034584/pexels-photo-1034584.jpeg?auto=compress&cs=tinysrgb&w=1600",
                "price": "12999",
                "shipping": false,
                "colors": [
                    "#FF5733"
                ]
            }
        },
        {
            "id": 13,
            "attributes": {
                "title": "contemporary sofa",
                "company": "Comfora",
                "description": "Cloud bread VHS hell of banjo bicycle rights jianbing umami mumblecore etsy 8-bit pok pok +1 wolf. Vexillologist yr dreamcatcher waistcoat, authentic chillwave trust fund. Viral typewriter fingerstache pinterest pork belly narwhal. Schlitz venmo everyday carry kitsch pitchfork chillwave iPhone taiyaki trust fund hashtag kinfolk microdosing gochujang live-edge",
                "featured": false,
                "createdAt": "2023-08-10T09:34:24.429Z",
                "updatedAt": "2023-08-10T09:34:27.095Z",
                "publishedAt": "2023-08-10T09:34:26.981Z",
                "category": "Sofas",
                "image": "https://images.pexels.com/photos/1571459/pexels-photo-1571459.jpeg?auto=compress&cs=tinysrgb&w=1600",
                "price": "15999",
                "shipping": false,
                "colors": [
                    "#FFFF00"
                ]
            }
        },
        {
            "id": 20,
            "attributes": {
                "title": "cutting-edge bed",
                "company": "Homestead",
                "description": "Cloud bread VHS hell of banjo bicycle rights jianbing umami mumblecore etsy 8-bit pok pok +1 wolf. Vexillologist yr dreamcatcher waistcoat, authentic chillwave trust fund. Viral typewriter fingerstache pinterest pork belly narwhal. Schlitz venmo everyday carry kitsch pitchfork chillwave iPhone taiyaki trust fund hashtag kinfolk microdosing gochujang live-edge",
                "featured": false,
                "createdAt": "2023-08-10T10:08:58.922Z",
                "updatedAt": "2023-08-10T10:09:01.251Z",
                "publishedAt": "2023-08-10T10:09:01.135Z",
                "category": "Beds",
                "image": "https://images.pexels.com/photos/2029694/pexels-photo-2029694.jpeg?auto=compress&cs=tinysrgb&w=1600",
                "price": "8499",
                "shipping": true,
                "colors": [
                    "#FFFF00",
                    "#3366FF"
                ]
            }
        },
        {
            "id": 16,
            "attributes": {
                "title": "futuristic shelves",
                "company": "Luxora",
                "description": "Cloud bread VHS hell of banjo bicycle rights jianbing umami mumblecore etsy 8-bit pok pok +1 wolf. Vexillologist yr dreamcatcher waistcoat, authentic chillwave trust fund. Viral typewriter fingerstache pinterest pork belly narwhal. Schlitz venmo everyday carry kitsch pitchfork chillwave iPhone taiyaki trust fund hashtag kinfolk microdosing gochujang live-edge",
                "featured": false,
                "createdAt": "2023-08-10T10:02:51.583Z",
                "updatedAt": "2023-08-10T10:02:53.797Z",
                "publishedAt": "2023-08-10T10:02:53.674Z",
                "category": "Kids",
                "image": "https://images.pexels.com/photos/2177482/pexels-photo-2177482.jpeg?auto=compress&cs=tinysrgb&w=1600",
                "price": "9499",
                "shipping": true,
                "colors": [
                    "#33FF57",
                    "#FFFF00"
                ]
            }
        },
        {
            "id": 21,
            "attributes": {
                "title": "glass table",
                "company": "Modenza",
                "description": "Cloud bread VHS hell of banjo bicycle rights jianbing umami mumblecore etsy 8-bit pok pok +1 wolf. Vexillologist yr dreamcatcher waistcoat, authentic chillwave trust fund. Viral typewriter fingerstache pinterest pork belly narwhal. Schlitz venmo everyday carry kitsch pitchfork chillwave iPhone taiyaki trust fund hashtag kinfolk microdosing gochujang live-edge",
                "featured": false,
                "createdAt": "2023-08-10T10:10:46.803Z",
                "updatedAt": "2023-08-10T10:10:48.971Z",
                "publishedAt": "2023-08-10T10:10:48.858Z",
                "category": "Tables",
                "image": "https://images.pexels.com/photos/1571452/pexels-photo-1571452.jpeg?auto=compress&cs=tinysrgb&w=1600",
                "price": "15999",
                "shipping": false,
                "colors": [
                    "#FF5733",
                    "#3366FF"
                ]
            }
        },
        {
            "id": 22,
            "attributes": {
                "title": "King Bed",
                "company": "Homestead",
                "description": "Cloud bread VHS hell of banjo bicycle rights jianbing umami mumblecore etsy 8-bit pok pok +1 wolf. Vexillologist yr dreamcatcher waistcoat, authentic chillwave trust fund. Viral typewriter fingerstache pinterest pork belly narwhal. Schlitz venmo everyday carry kitsch pitchfork chillwave iPhone taiyaki trust fund hashtag kinfolk microdosing gochujang live-edge",
                "featured": false,
                "createdAt": "2023-08-10T10:11:38.696Z",
                "updatedAt": "2023-08-10T10:11:40.915Z",
                "publishedAt": "2023-08-10T10:11:40.802Z",
                "category": "Beds",
                "image": "https://images.pexels.com/photos/6489083/pexels-photo-6489083.jpeg?auto=compress&cs=tinysrgb&w=1600",
                "price": "18999",
                "shipping": true,
                "colors": [
                    "#FF5733"
                ]
            }
        },
        {
            "id": 24,
            "attributes": {
                "title": "Lounge Chair",
                "company": "Luxora",
                "description": "Cloud bread VHS hell of banjo bicycle rights jianbing umami mumblecore etsy 8-bit pok pok +1 wolf. Vexillologist yr dreamcatcher waistcoat, authentic chillwave trust fund. Viral typewriter fingerstache pinterest pork belly narwhal. Schlitz venmo everyday carry kitsch pitchfork chillwave iPhone taiyaki trust fund hashtag kinfolk microdosing gochujang live-edge",
                "featured": false,
                "createdAt": "2023-08-10T10:13:29.629Z",
                "updatedAt": "2023-08-10T10:15:29.354Z",
                "publishedAt": "2023-08-10T10:13:31.792Z",
                "category": "Chairs",
                "image": "https://images.pexels.com/photos/2082090/pexels-photo-2082090.jpeg?auto=compress&cs=tinysrgb&w=1600",
                "price": "25999",
                "shipping": false,
                "colors": [
                    "#FF5733",
                    "#33FF57",
                    "#3366FF"
                ]
            }
        }
    ],
    "meta": {
        "pagination": {
            "page": 1,
            "pageSize": 10,
            "pageCount": 3,
            "total": 22
        },
        "categories": [
            "all",
            "Tables",
            "Chairs",
            "Kids",
            "Sofas",
            "Beds"
        ],
        "companies": [
            "all",
            "Modenza",
            "Luxora",
            "Artifex",
            "Comfora",
            "Homestead"
        ]
    },
        {
            "id": 11,
            "attributes": {
                "title": "Minimalist Shelves",
                "company": "Artifex",
                "description": "Cloud bread VHS hell of banjo bicycle rights jianbing umami mumblecore etsy 8-bit pok pok +1 wolf. Vexillologist yr dreamcatcher waistcoat, authentic chillwave trust fund. Viral typewriter fingerstache pinterest pork belly narwhal. Schlitz venmo everyday carry kitsch pitchfork chillwave iPhone taiyaki trust fund hashtag kinfolk microdosing gochujang live-edge",
                "featured": false,
                "createdAt": "2023-08-10T09:31:43.653Z",
                "updatedAt": "2023-08-10T09:31:46.013Z",
                "publishedAt": "2023-08-10T09:31:45.900Z",
                "category": "Kids",
                "image": "https://images.pexels.com/photos/439227/pexels-photo-439227.jpeg?auto=compress&cs=tinysrgb&w=1600",
                "price": "43999",
                "shipping": false,
                "colors": [
                    "#FF5733",
                    "#FFFF00"
                ]
            }
        },
        {
            "id": 5,
            "attributes": {
                "title": "modern sofa",
                "company": "Comfora",
                "description": "Cloud bread VHS hell of banjo bicycle rights jianbing umami mumblecore etsy 8-bit pok pok +1 wolf. Vexillologist yr dreamcatcher waistcoat, authentic chillwave trust fund. Viral typewriter fingerstache pinterest pork belly narwhal. Schlitz venmo everyday carry kitsch pitchfork chillwave iPhone taiyaki trust fund hashtag kinfolk microdosing gochujang live-edge",
                "featured": false,
                "createdAt": "2023-08-02T14:25:10.447Z",
                "updatedAt": "2023-08-08T14:04:21.619Z",
                "publishedAt": "2023-08-02T14:25:28.344Z",
                "category": "Sofas",
                "image": "https://images.pexels.com/photos/6480707/pexels-photo-6480707.jpeg?auto=compress&cs=tinysrgb&w=1260&h=750&dpr=2",
                "price": "29999",
                "shipping": false,
                "colors": [
                    "#FF5733",
                    "#33FF57",
                    "#FFFF00"
                ]
            }
        },
        {
            "id": 9,
            "attributes": {
                "title": "modern table",
                "company": "Modenza",
                "description": "Cloud bread VHS hell of banjo bicycle rights jianbing umami mumblecore etsy 8-bit pok pok +1 wolf. Vexillologist yr dreamcatcher waistcoat, authentic chillwave trust fund. Viral typewriter fingerstache pinterest pork belly narwhal. Schlitz venmo everyday carry kitsch pitchfork chillwave iPhone taiyaki trust fund hashtag kinfolk microdosing gochujang live-edge",
                "featured": false,
                "createdAt": "2023-08-08T14:02:24.368Z",
                "updatedAt": "2023-08-08T14:53:24.452Z",
                "publishedAt": "2023-08-08T14:02:33.536Z",
                "category": "Tables",
                "image": "https://images.pexels.com/photos/447592/pexels-photo-447592.jpeg?auto=compress&cs=tinysrgb&w=1600",
                "price": "38999",
                "shipping": true,
                "colors": [
                    "#33FF57",
                    "#3366FF"
                ]
            }
        },
        {
            "id": 18,
            "attributes": {
                "title": "reclining sofa",
                "company": "Comfora",
                "description": "Cloud bread VHS hell of banjo bicycle rights jianbing umami mumblecore etsy 8-bit pok pok +1 wolf. Vexillologist yr dreamcatcher waistcoat, authentic chillwave trust fund. Viral typewriter fingerstache pinterest pork belly narwhal. Schlitz venmo everyday carry kitsch pitchfork chillwave iPhone taiyaki trust fund hashtag kinfolk microdosing gochujang live-edge",
                "featured": false,
                "createdAt": "2023-08-10T10:05:57.858Z",
                "updatedAt": "2023-08-10T10:06:01.554Z",
                "publishedAt": "2023-08-10T10:06:01.438Z",
                "category": "Sofas",
                "image": "https://images.pexels.com/photos/4316737/pexels-photo-4316737.jpeg?auto=compress&cs=tinysrgb&w=1600",
                "price": "32999",
                "shipping": false,
                "colors": [
                    "#FF5733",
                    "#33FF57",
                    "#3366FF",
                    "#FFFF00"
                ]
            }
        },
        {
            "id": 25,
            "attributes": {
                "title": "Sectional Sofa",
                "company": "Comfora",
                "description": "Cloud bread VHS hell of banjo bicycle rights jianbing umami mumblecore etsy 8-bit pok pok +1 wolf. Vexillologist yr dreamcatcher waistcoat, authentic chillwave trust fund. Viral typewriter fingerstache pinterest pork belly narwhal. Schlitz venmo everyday carry kitsch pitchfork chillwave iPhone taiyaki trust fund hashtag kinfolk microdosing gochujang live-edge",
                "featured": false,
                "createdAt": "2023-08-10T10:14:14.760Z",
                "updatedAt": "2023-08-10T10:14:17.029Z",
                "publishedAt": "2023-08-10T10:14:16.909Z",
                "category": "Sofas",
                "image": "https://images.pexels.com/photos/4857775/pexels-photo-4857775.jpeg?auto=compress&cs=tinysrgb&w=1600",
                "price": "35999",
                "shipping": true,
                "colors": [
                    "#FF5733",
                    "#33FF57",
                    "#3366FF",
                    "#FFFF00"
                ]
            }
        },
        {
            "id": 10,
            "attributes": {
                "title": "sleek bed",
                "company": "Homestead",
                "description": "Cloud bread VHS hell of banjo bicycle rights jianbing umami mumblecore etsy 8-bit pok pok +1 wolf. Vexillologist yr dreamcatcher waistcoat, authentic chillwave trust fund. Viral typewriter fingerstache pinterest pork belly narwhal. Schlitz venmo everyday carry kitsch pitchfork chillwave iPhone taiyaki trust fund hashtag kinfolk microdosing gochujang live-edge",
                "featured": false,
                "createdAt": "2023-08-10T09:30:26.259Z",
                "updatedAt": "2023-08-10T09:30:28.876Z",
                "publishedAt": "2023-08-10T09:30:28.763Z",
                "category": "Beds",
                "image": "https://images.pexels.com/photos/16869701/pexels-photo-16869701/free-photo-of-modern-luxury-real-estate-property-interior-bedroom.jpeg?auto=compress&cs=tinysrgb&w=1600",
                "price": "53999",
                "shipping": true,
                "colors": [
                    "#FFFF00",
                    "#3366FF"
                ]
            }
        },
        {
            "id": 4,
            "attributes": {
                "title": "sleek chair",
                "company": "Luxora",
                "description": "Cloud bread VHS hell of banjo bicycle rights jianbing umami mumblecore etsy 8-bit pok pok +1 wolf. Vexillologist yr dreamcatcher waistcoat, authentic chillwave trust fund. Viral typewriter fingerstache pinterest pork belly narwhal. Schlitz venmo everyday carry kitsch pitchfork chillwave iPhone taiyaki trust fund hashtag kinfolk microdosing gochujang live-edge",
                "featured": false,
                "createdAt": "2023-08-01T11:14:57.336Z",
                "updatedAt": "2023-08-10T10:17:13.540Z",
                "publishedAt": "2023-08-01T11:15:39.281Z",
                "category": "Chairs",
                "image": "https://images.pexels.com/photos/116910/pexels-photo-116910.jpeg?auto=compress&cs=tinysrgb&w=1600",
                "price": "19999",
                "shipping": false,
                "colors": [
                    "#FF5733",
                    "#33FF57",
                    "#3366FF",
                    "#FFFF00"
                ]
            }
        },
        {
            "id": 14,
            "attributes": {
                "title": "streamlined table",
                "company": "Modenza",
                "description": "Cloud bread VHS hell of banjo bicycle rights jianbing umami mumblecore etsy 8-bit pok pok +1 wolf. Vexillologist yr dreamcatcher waistcoat, authentic chillwave trust fund. Viral typewriter fingerstache pinterest pork belly narwhal. Schlitz venmo everyday carry kitsch pitchfork chillwave iPhone taiyaki trust fund hashtag kinfolk microdosing gochujang live-edge",
                "featured": false,
                "createdAt": "2023-08-10T09:36:07.565Z",
                "updatedAt": "2023-08-10T09:36:09.798Z",
                "publishedAt": "2023-08-10T09:36:09.688Z",
                "category": "Tables",
                "image": "https://images.pexels.com/photos/890669/pexels-photo-890669.jpeg?auto=compress&cs=tinysrgb&w=1600",
                "price": "20999",
                "shipping": true,
                "colors": [
                    "#FF5733",
                    "#3366FF"
                ]
            }
        },
        {
            "id": 15,
            "attributes": {
                "title": "stylish bed",
                "company": "Homestead",
                "description": "Cloud bread VHS hell of banjo bicycle rights jianbing umami mumblecore etsy 8-bit pok pok +1 wolf. Vexillologist yr dreamcatcher waistcoat, authentic chillwave trust fund. Viral typewriter fingerstache pinterest pork belly narwhal. Schlitz venmo everyday carry kitsch pitchfork chillwave iPhone taiyaki trust fund hashtag kinfolk microdosing gochujang live-edge",
                "featured": false,
                "createdAt": "2023-08-10T10:01:20.801Z",
                "updatedAt": "2023-08-10T10:01:24.100Z",
                "publishedAt": "2023-08-10T10:01:23.986Z",
                "category": "Beds",
                "image": "https://images.pexels.com/photos/6758398/pexels-photo-6758398.jpeg?auto=compress&cs=tinysrgb&w=1600",
                "price": "16999",
                "shipping": true,
                "colors": [
                    "#FF5733"
                ]
            }
        },
        {
            "id": 23,
            "attributes": {
                "title": "Toy Shelf",
                "company": "Luxora",
                "description": "Cloud bread VHS hell of banjo bicycle rights jianbing umami mumblecore etsy 8-bit pok pok +1 wolf. Vexillologist yr dreamcatcher waistcoat, authentic chillwave trust fund. Viral typewriter fingerstache pinterest pork belly narwhal. Schlitz venmo everyday carry kitsch pitchfork chillwave iPhone taiyaki trust fund hashtag kinfolk microdosing gochujang live-edge",
                "featured": false,
                "createdAt": "2023-08-10T10:12:28.626Z",
                "updatedAt": "2023-08-10T10:12:30.715Z",
                "publishedAt": "2023-08-10T10:12:30.599Z",
                "category": "Kids",
                "image": "https://images.pexels.com/photos/3932929/pexels-photo-3932929.jpeg?auto=compress&cs=tinysrgb&w=1600",
                "price": "7999",
                "shipping": false,
                "colors": [
                    "#33FF57",
                    "#FFFF00"
                ]
            }
        },
        {
            "id": 17,
            "attributes": {
                "title": "velvet sofa",
                "company": "Luxora",
                "description": "Cloud bread VHS hell of banjo bicycle rights jianbing umami mumblecore etsy 8-bit pok pok +1 wolf. Vexillologist yr dreamcatcher waistcoat, authentic chillwave trust fund. Viral typewriter fingerstache pinterest pork belly narwhal. Schlitz venmo everyday carry kitsch pitchfork chillwave iPhone taiyaki trust fund hashtag kinfolk microdosing gochujang live-edge",
                "featured": false,
                "createdAt": "2023-08-10T10:04:26.080Z",
                "updatedAt": "2023-08-10T10:04:29.084Z",
                "publishedAt": "2023-08-10T10:04:28.969Z",
                "category": "Chairs",
                "image": "https://images.pexels.com/photos/4916510/pexels-photo-4916510.jpeg?auto=compress&cs=tinysrgb&w=1600",
                "price": "28999",
                "shipping": true,
                "colors": [
                    "#FF5733",
                    "#33FF57",
                    "#FFFF00"
                ]
            }
        },
        {
            "id": 8,
            "attributes": {
                "title": "wooden shelves",
                "company": "Artifex",
                "description": "Cloud bread VHS hell of banjo bicycle rights jianbing umami mumblecore etsy 8-bit pok pok +1 wolf. Vexillologist yr dreamcatcher waistcoat, authentic chillwave trust fund. Viral typewriter fingerstache pinterest pork belly narwhal. Schlitz venmo everyday carry kitsch pitchfork chillwave iPhone taiyaki trust fund hashtag kinfolk microdosing gochujang live-edge",
                "featured": false,
                "createdAt": "2023-08-02T14:36:43.227Z",
                "updatedAt": "2023-08-04T07:35:59.208Z",
                "publishedAt": "2023-08-02T14:36:46.122Z",
                "category": "Kids",
                "image": "https://images.pexels.com/photos/3932930/pexels-photo-3932930.jpeg?auto=compress&cs=tinysrgb&w=1260&h=750&dpr=2",
                "price": "11999",
                "shipping": true,
                "colors": [
                    "#33FF57",
                    "#3366FF"
                ]
            }
        }
}